Introduction to Data Science
…
read_csv("state_property_vote.csv")

## Parsed with column specification:
## cols(
##   state = col_character(),
##   med_income = col_double(),
##   med_prop_val = col_double(),
##   population = col_double(),
##   mean_commute_minutes = col_double(),
##   party = col_character()
## )

## # A tibble: 52 x 6
##    state med_income med_prop_val population mean_commute_minutes party     
##    <chr>      <dbl>        <dbl>      <dbl>                <dbl> <chr>     
##  1 AK         64222       197300     733375                 10.5 Republican
##  2 AL         36924        94800    4830620                 25.3 Republican
##  3 AR         35833        83300    2958208                 22.4 Republican
##  4 AZ         44748       128700    6641928                 20.6 Republican
##  5 CA         53075       252100   38421464                 23.4 Democrat  
##  6 CO         48098       198900    5278906                 19.5 Democrat  
##  7 CT         69228       246450    3593222                 24.3 Democrat  
##  8 DC         70848       475800     647484                 28.3 Democrat  
##  9 DE         54976       228500     926454                 24.5 Democrat  
## 10 FL         43355       125600   19645772                 24.8 Republican
## # … with 42 more rows
…
